@0, q = Q1, load(@B) = [], moving B->A:E1, drop(@A) = [], arriving @3
@3, q = Q1, load(@A) = [P1], moving A->B:E1, drop(@B) = [], arriving @6
@6, q = Q1, load(@B) = [], moving B->C:E2, drop(@C) = [P1], arriving @7
@7, all parcels delivered!